<svg xmlns="http://www.w3.org/2000/svg" width="26.071" height="19.499" viewBox="0 0 26.071 19.499">
  <g id="tambah_teman_di_group" data-name="tambah teman di group" transform="translate(-322 -242.501)">
    <path id="Icon_material-group" data-name="Icon material-group" d="M10.5,15.214a3.857,3.857,0,1,0-3.857-3.857A3.841,3.841,0,0,0,10.5,15.214Zm0,2.571c-3,0-9,1.5-9,4.5V25.5h18V22.286C19.5,19.29,13.5,17.786,10.5,17.786Z" transform="translate(320.5 236.5)" fill="#2a4455"/>
    <g id="Group_673" data-name="Group 673" transform="translate(-2 183.501)">
      <g id="Group_671" data-name="Group 671" transform="translate(344.75 68.642) rotate(-90)">
        <path id="Path_37" data-name="Path 37" d="M0,0H8.642" transform="translate(0)" fill="none" stroke="#2a4455" stroke-linecap="round" stroke-width="2"/>
      </g>
      <g id="Group_672" data-name="Group 672" transform="translate(349.071 64.321) rotate(180)">
        <path id="Path_37-2" data-name="Path 37" d="M0,0H8.642" transform="translate(0)" fill="none" stroke="#2a4455" stroke-linecap="round" stroke-width="2"/>
      </g>
    </g>
  </g>
</svg>
