<svg xmlns="http://www.w3.org/2000/svg" width="17.197" height="17.198" viewBox="0 0 17.197 17.198">
  <path id="Path_20" data-name="Path 20" d="M73.252,1458.714a4.8,4.8,0,0,0-.342.412h0a.563.563,0,0,1-.107.11.572.572,0,0,1-.8-.1,4.828,4.828,0,0,0-.354-.4,3.9,3.9,0,0,0-.377-.337,3.285,3.285,0,0,0-1.047-.551,4.268,4.268,0,0,0-1.341-.177,3.968,3.968,0,0,0-3.934,4.021,6.987,6.987,0,0,0,.654,2.76,13.883,13.883,0,0,0,1.723,2.784,32.548,32.548,0,0,0,2.324,2.648c.855.887,1.763,1.771,2.671,2.654a.429.429,0,0,0,.606-.009c.9-.919,1.8-1.838,2.606-2.72a32.544,32.544,0,0,0,2.254-2.7,13.887,13.887,0,0,0,1.652-2.825,6.993,6.993,0,0,0,.586-2.777,3.975,3.975,0,0,0-4.032-3.922,4.27,4.27,0,0,0-1.337.211,3.279,3.279,0,0,0-1.033.577,3.866,3.866,0,0,0-.37.345Zm-.812-.684.04-.043q.061-.066.166-.165c.02-.021.04-.042.062-.062.089-.083.17-.155.241-.213a4.484,4.484,0,0,1,.643-.439,4.355,4.355,0,0,1,.722-.322,4.879,4.879,0,0,1,.806-.195,6,6,0,0,1,.859-.07,5.114,5.114,0,0,1,.984.082,5.014,5.014,0,0,1,4.121,4.887,7.223,7.223,0,0,1-.166,1.628,9.081,9.081,0,0,1-.5,1.569,12.489,12.489,0,0,1-.781,1.546c-.294.5-.629,1-1,1.5-.351.48-.724.95-1.112,1.412-.356.425-.768.888-1.217,1.378-.922,1.007-1.774,1.877-2.625,2.748l0,0a1.493,1.493,0,0,1-2.105.029l0,0c-.914-.889-1.829-1.779-2.693-2.676-.421-.437-.839-.887-1.252-1.354s-.8-.925-1.147-1.381c-.383-.5-.732-.989-1.036-1.477a12.465,12.465,0,0,1-.816-1.524,9.064,9.064,0,0,1-.537-1.556,7.271,7.271,0,0,1-.208-1.625,4.974,4.974,0,0,1,1.37-3.512c.019-.023.039-.045.06-.066a5.042,5.042,0,0,1,3.551-1.515,6.006,6.006,0,0,1,.86.048,4.777,4.777,0,0,1,.81.176,4.221,4.221,0,0,1,.728.3,4.4,4.4,0,0,1,.655.422c.056.043.138.114.246.21.09.08.168.154.235.223Z" transform="translate(-63.887 -1456.521)" fill="#2a4455" fill-rule="evenodd"/>
</svg>
